Output
reg_file[10]: 4294967281
alu_op:  0 in1:          3, in2:          8, result:         11
alu_op:  0 in1:          x, in2:          x, result:          x
reg_file[10]:         11

Input
		instMem[0] = 8'b00000101; //-- Add  t2,t0,t1
        instMem[1] = 8'b00001001;
        instMem[2] = 8'b01010000;
        instMem[3] = 8'b00100000;
