Output
reg_file[12]:          7
reg_file[12]:          8

Input
       	  instMem[0] = 8'b01001001; //-- lw t4,1(t0)
          instMem[1] = 8'b00001100;
          instMem[2] = 8'b00000000;
          instMem[3] = 8'b00000001
